// Jest Snapshot v1, https://goo.gl/fbAQLP

exports[`should render 1`] = `
<Fragment>
  <div>
    bestbuy.ca has 
    1
     product(s)
  </div>
  <button
    disabled={false}
    onClick={[Function]}
  >
    Reload
  </button>
</Fragment>
`;

exports[`should render loading 1`] = `
<Fragment>
  <div>
    Loading...
  </div>
  <button
    disabled={true}
    onClick={[Function]}
  >
    Reload
  </button>
</Fragment>
`;
